{
	"__ver": "sys-pkg:8|geograph:3",
	"_id": "sH5R-2tYQKSZm7qyvOdQxA",
	"build_config": {
		"exclude": [
			"User",
			"BusinessObjectPackage",
			{
				"class_name": "Config",
				"condition": {
					"key": {
						"$contains": "sys.user.preferences|sys.packageBuilding"
					}
				}
			}
		]
	},
	"changelog": [
	],
	"description": "Countries, Cities, Zip Codes, etc.",
	"key": "data.geographical",
	"manifest": {
		"BusinessObjectDef": {
			"4q5jf2jdQmW582pyWrklnw": "ffi-pledge-db:1|sys-pkg:1",
			"YwqpvVgISs_08attyIGFNA": "sys-pkg:1"
		},
		"CodeModule": {
			"Z1DrV6CzT42JtnlyJPDgzg": "ffi-pledge-db:5|sys-pkg:1"
		},
		"Config": {
			"LVNA_vm_QW6Lh3M0AImYjA": "ffi-pledge-db:1|sys-pkg:2",
			"QAmy87TzTuGLOuAI-IfNuw": "sys-pkg:1"
		},
		"Country": {
			"6iM0Av2lEeSFtiimx_V4dw": "sys-pkg:1|geograph:1",
			"6iM0XP2lEeSFtiimx_V4dw": "sys-pkg:1|geograph:1",
			"6iM0tv2lEeSFtiimx_V4dw": "sys-pkg:1|geograph:1",
			"6iM1EP2lEeSFtiimx_V4dw": "sys-pkg:1|geograph:1",
			"6iM1av2lEeSFtiimx_V4dw": "sys-pkg:1|geograph:1",
			"6iM1xP2lEeSFtiimx_V4dw": "sys-pkg:1|geograph:1",
			"6iM2Hv2lEeSFtiimx_V4dw": "sys-pkg:1|geograph:1",
			"6iM2eP2lEeSFtiimx_V4dw": "sys-pkg:1|geograph:1",
			"6iM69v2lEeSFtiimx_V4dw": "sys-pkg:1|geograph:1",
			"6iM6nP2lEeSFtiimx_V4dw": "sys-pkg:1|geograph:1",
			"6iM7UP2lEeSFtiimx_V4dw": "sys-pkg:1|geograph:1",
			"6iM7qv2lEeSFtiimx_V4dw": "sys-pkg:1|geograph:1",
			"6iM8BP2lEeSFtiimx_V4dw": "sys-pkg:1|geograph:1",
			"6iM8Xv2lEeSFtiimx_V4dw": "sys-pkg:1|geograph:1",
			"6iM8uP2lEeSFtiimx_V4dw": "sys-pkg:1|geograph:1",
			"6iM9HP2lEeSFtiimx_V4dw": "sys-pkg:1|geograph:1",
			"6iM9dv2lEeSFtiimx_V4dw": "sys-pkg:1|geograph:1",
			"6iMOgv2lEeSFtiimx_V4dw": "sys-pkg:1|geograph:1",
			"6iMPpP2lEeSFtiimx_V4dw": "sys-pkg:1|geograph:1",
			"6iMQ2v2lEeSFtiimx_V4dw": "sys-pkg:1|geograph:1",
			"6iMQHP2lEeSFtiimx_V4dw": "sys-pkg:1|geograph:1",
			"6iMQgP2lEeSFtiimx_V4dw": "sys-pkg:1|geograph:1",
			"6iMRPv2lEeSFtiimx_V4dw": "sys-pkg:1|geograph:1",
			"6iMR_P2lEeSFtiimx_V4dw": "sys-pkg:1|geograph:1",
			"6iMRmP2lEeSFtiimx_V4dw": "sys-pkg:1|geograph:1",
			"6iMSVv2lEeSFtiimx_V4dw": "sys-pkg:1|geograph:1",
			"6iMTCv2lEeSFtiimx_V4dw": "sys-pkg:1|geograph:1",
			"6iMTZP2lEeSFtiimx_V4dw": "sys-pkg:1|geograph:1",
			"6iMTvv2lEeSFtiimx_V4dw": "sys-pkg:1|geograph:1",
			"6iMUGP2lEeSFtiimx_V4dw": "sys-pkg:1|geograph:1",
			"6iMUcv2lEeSFtiimx_V4dw": "sys-pkg:1|geograph:1",
			"6iMUzP2lEeSFtiimx_V4dw": "sys-pkg:1|geograph:1",
			"6iMV2v2lEeSFtiimx_V4dw": "sys-pkg:1|geograph:1",
			"6iMVJv2lEeSFtiimx_V4dw": "sys-pkg:1|geograph:1",
			"6iMVgP2lEeSFtiimx_V4dw": "sys-pkg:1|geograph:1",
			"6iMW3v2lEeSFtiimx_V4dw": "sys-pkg:1|geograph:1",
			"6iMWNP2lEeSFtiimx_V4dw": "sys-pkg:1|geograph:1",
			"6iMWhP2lEeSFtiimx_V4dw": "sys-pkg:1|geograph:1",
			"6iMX7P2lEeSFtiimx_V4dw": "sys-pkg:1|geograph:1",
			"6iMXOP2lEeSFtiimx_V4dw": "sys-pkg:1|geograph:1",
			"6iMXkv2lEeSFtiimx_V4dw": "sys-pkg:1|geograph:1",
			"6iMY-v2lEeSFtiimx_V4dw": "sys-pkg:1|geograph:1",
			"6iMYRv2lEeSFtiimx_V4dw": "sys-pkg:1|geograph:1",
			"6iMYoP2lEeSFtiimx_V4dw": "sys-pkg:1|geograph:1",
			"6iMZVP2lEeSFtiimx_V4dw": "sys-pkg:1|geograph:1",
			"6iMZrv2lEeSFtiimx_V4dw": "sys-pkg:1|geograph:1",
			"6iMaCP2lEeSFtiimx_V4dw": "sys-pkg:1|geograph:1",
			"6iMaYv2lEeSFtiimx_V4dw": "sys-pkg:1|geograph:1",
			"6iMavP2lEeSFtiimx_V4dw": "sys-pkg:1|geograph:1",
			"6iMbFv2lEeSFtiimx_V4dw": "sys-pkg:1|geograph:1",
			"6iMbcP2lEeSFtiimx_V4dw": "sys-pkg:1|geograph:1",
			"6iMbyv2lEeSFtiimx_V4dw": "sys-pkg:1|geograph:1",
			"6iMc4v2lEeSFtiimx_V4dw": "sys-pkg:1|geograph:1",
			"6iMcJP2lEeSFtiimx_V4dw": "sys-pkg:1|geograph:1",
			"6iMcfv2lEeSFtiimx_V4dw": "sys-pkg:1|geograph:1",
			"6iMd8P2lEeSFtiimx_V4dw": "sys-pkg:1|geograph:1",
			"6iMdPP2lEeSFtiimx_V4dw": "sys-pkg:1|geograph:1",
			"6iMdlv2lEeSFtiimx_V4dw": "sys-pkg:1|geograph:1",
			"6iMeSv2lEeSFtiimx_V4dw": "sys-pkg:1|geograph:1",
			"6iMe_v2lEeSFtiimx_V4dw": "sys-pkg:1|geograph:1",
			"6iMepP2lEeSFtiimx_V4dw": "sys-pkg:1|geograph:1",
			"6iMj6v2lEeSFtiimx_V4dw": "sys-pkg:1|geograph:1",
			"6iMkTv2lEeSFtiimx_V4dw": "sys-pkg:1|geograph:1",
			"6iMksv2lEeSFtiimx_V4dw": "sys-pkg:1|geograph:1",
			"6iMlDP2lEeSFtiimx_V4dw": "sys-pkg:1|geograph:1",
			"6iMlZv2lEeSFtiimx_V4dw": "sys-pkg:1|geograph:1",
			"6iMlwP2lEeSFtiimx_V4dw": "sys-pkg:1|geograph:1",
			"6iMmGv2lEeSFtiimx_V4dw": "sys-pkg:1|geograph:1",
			"6iMmav2lEeSFtiimx_V4dw": "sys-pkg:1|geograph:1",
			"6iMmxP2lEeSFtiimx_V4dw": "sys-pkg:1|geograph:1",
			"6iMn0v2lEeSFtiimx_V4dw": "sys-pkg:1|geograph:1",
			"6iMnHv2lEeSFtiimx_V4dw": "sys-pkg:1|geograph:1",
			"6iMneP2lEeSFtiimx_V4dw": "sys-pkg:1|geograph:1",
			"6iMo4P2lEeSFtiimx_V4dw": "sys-pkg:1|geograph:1",
			"6iMohv2lEeSFtiimx_V4dw": "sys-pkg:1|geograph:1",
			"6iMp7v2lEeSFtiimx_V4dw": "sys-pkg:1|geograph:1",
			"6iMpOv2lEeSFtiimx_V4dw": "sys-pkg:1|geograph:1",
			"6iMplP2lEeSFtiimx_V4dw": "sys-pkg:1|geograph:1",
			"6iMqSP2lEeSFtiimx_V4dw": "sys-pkg:1|geograph:1",
			"6iMq_P2lEeSFtiimx_V4dw": "sys-pkg:1|geograph:1",
			"6iMqov2lEeSFtiimx_V4dw": "sys-pkg:1|geograph:1",
			"6iMrVv2lEeSFtiimx_V4dw": "sys-pkg:1|geograph:1",
			"6iMrsP2lEeSFtiimx_V4dw": "sys-pkg:1|geograph:1",
			"6iMsCv2lEeSFtiimx_V4dw": "sys-pkg:1|geograph:1",
			"6iMsZP2lEeSFtiimx_V4dw": "sys-pkg:1|geograph:1",
			"6iMsvv2lEeSFtiimx_V4dw": "sys-pkg:1|geograph:1",
			"6iMx3P2lEeSFtiimx_V4dw": "sys-pkg:1|geograph:1",
			"6iMxFP2lEeSFtiimx_V4dw": "sys-pkg:1|geograph:1",
			"6iMxgv2lEeSFtiimx_V4dw": "sys-pkg:1|geograph:1",
			"6iMy6v2lEeSFtiimx_V4dw": "sys-pkg:1|geograph:1",
			"6iMyNv2lEeSFtiimx_V4dw": "sys-pkg:1|geograph:1",
			"6iMykP2lEeSFtiimx_V4dw": "sys-pkg:1|geograph:1",
			"6iMzRP2lEeSFtiimx_V4dw": "sys-pkg:1|geograph:1",
			"6iMzqP2lEeSFtiimx_V4dw": "sys-pkg:1|geograph:1",
			"6iN-2v2lEeSFtiimx_V4dw": "sys-pkg:1|geograph:1",
			"6iN-Ov2lEeSFtiimx_V4dw": "sys-pkg:1|geograph:1",
			"6iN0lP2lEeSFtiimx_V4dw": "sys-pkg:1|geograph:1",
			"6iN1NP2lEeSFtiimx_V4dw": "sys-pkg:1|geograph:1",
			"6iN1yv2lEeSFtiimx_V4dw": "sys-pkg:1|geograph:1",
			"6iN2av2lEeSFtiimx_V4dw": "sys-pkg:1|geograph:1",
			"6iN3AP2lEeSFtiimx_V4dw": "sys-pkg:1|geograph:1",
			"6iN3oP2lEeSFtiimx_V4dw": "sys-pkg:1|geograph:1",
			"6iN41v2lEeSFtiimx_V4dw": "sys-pkg:1|geograph:1",
			"6iN4QP2lEeSFtiimx_V4dw": "sys-pkg:1|geograph:1",
			"6iN5bP2lEeSFtiimx_V4dw": "sys-pkg:1|geograph:1",
			"6iN6DP2lEeSFtiimx_V4dw": "sys-pkg:1|geograph:1",
			"6iN6ov2lEeSFtiimx_V4dw": "sys-pkg:1|geograph:1",
			"6iN72P2lEeSFtiimx_V4dw": "sys-pkg:1|geograph:1",
			"6iN7OP2lEeSFtiimx_V4dw": "sys-pkg:1|geograph:1",
			"6iN8bv2lEeSFtiimx_V4dw": "sys-pkg:1|geograph:1",
			"6iN9Dv2lEeSFtiimx_V4dw": "sys-pkg:1|geograph:1",
			"6iN9pP2lEeSFtiimx_V4dw": "sys-pkg:1|geograph:1",
			"6iNBhv2lEeSFtiimx_V4dw": "sys-pkg:1|geograph:1",
			"6iNC0P2lEeSFtiimx_V4dw": "sys-pkg:1|geograph:1",
			"6iNCRP2lEeSFtiimx_V4dw": "sys-pkg:1|geograph:1",
			"6iND3v2lEeSFtiimx_V4dw": "sys-pkg:1|geograph:1",
			"6iNDUv2lEeSFtiimx_V4dw": "sys-pkg:1|geograph:1",
			"6iNEYP2lEeSFtiimx_V4dw": "sys-pkg:1|geograph:1",
			"6iNIov2lEeSFtiimx_V4dw": "sys-pkg:1|geograph:1",
			"6iNJLv2lEeSFtiimx_V4dw": "sys-pkg:1|geograph:1",
			"6iNJsP2lEeSFtiimx_V4dw": "sys-pkg:1|geograph:1",
			"6iNN8v2lEeSFtiimx_V4dw": "sys-pkg:1|geograph:1",
			"6iNSwP2lEeSFtiimx_V4dw": "sys-pkg:1|geograph:1",
			"6iNXAv2lEeSFtiimx_V4dw": "sys-pkg:1|geograph:1",
			"6iN_cP2lEeSFtiimx_V4dw": "sys-pkg:1|geograph:1",
			"6iNkwv2lEeSFtiimx_V4dw": "sys-pkg:1|geograph:1",
			"6iNl-P2lEeSFtiimx_V4dw": "sys-pkg:1|geograph:1",
			"6iNlOv2lEeSFtiimx_V4dw": "sys-pkg:1|geograph:1",
			"6iNlnv2lEeSFtiimx_V4dw": "sys-pkg:1|geograph:1",
			"6iNmXP2lEeSFtiimx_V4dw": "sys-pkg:1|geograph:1",
			"6iNmtv2lEeSFtiimx_V4dw": "sys-pkg:1|geograph:1",
			"6iNnEP2lEeSFtiimx_V4dw": "sys-pkg:1|geograph:1",
			"6iNnav2lEeSFtiimx_V4dw": "sys-pkg:1|geograph:1",
			"6iNnxP2lEeSFtiimx_V4dw": "sys-pkg:1|geograph:1",
			"6iNoHv2lEeSFtiimx_V4dw": "sys-pkg:1|geograph:1",
			"6iNp9P2lEeSFtiimx_V4dw": "sys-pkg:1|geograph:1",
			"6iNpfP2lEeSFtiimx_V4dw": "sys-pkg:1|geograph:1",
			"6iNqnv2lEeSFtiimx_V4dw": "sys-pkg:1|geograph:1",
			"6iNrNP2lEeSFtiimx_V4dw": "sys-pkg:1|geograph:1",
			"6iNryv2lEeSFtiimx_V4dw": "sys-pkg:1|geograph:1",
			"6iNt3P2lEeSFtiimx_V4dw": "sys-pkg:1|geograph:1",
			"6iNtMv2lEeSFtiimx_V4dw": "sys-pkg:1|geograph:1",
			"6iNuhv2lEeSFtiimx_V4dw": "sys-pkg:1|geograph:1",
			"6iNvJv2lEeSFtiimx_V4dw": "sys-pkg:1|geograph:1",
			"6iNvvP2lEeSFtiimx_V4dw": "sys-pkg:1|geograph:1",
			"6iNw8v2lEeSFtiimx_V4dw": "sys-pkg:1|geograph:1",
			"6iNwXP2lEeSFtiimx_V4dw": "sys-pkg:1|geograph:1",
			"6iNxkv2lEeSFtiimx_V4dw": "sys-pkg:1|geograph:1",
			"6iNyKP2lEeSFtiimx_V4dw": "sys-pkg:1|geograph:1",
			"6iNyvv2lEeSFtiimx_V4dw": "sys-pkg:1|geograph:1",
			"6iNzXv2lEeSFtiimx_V4dw": "sys-pkg:1|geograph:1",
			"6iNz_v2lEeSFtiimx_V4dw": "sys-pkg:1|geograph:1",
			"6iOABv2lEeSFtiimx_V4dw": "sys-pkg:1|geograph:1",
			"6iOApv2lEeSFtiimx_V4dw": "sys-pkg:1|geograph:1",
			"6iOB0v2lEeSFtiimx_V4dw": "sys-pkg:1|geograph:1",
			"6iOBPP2lEeSFtiimx_V4dw": "sys-pkg:1|geograph:1",
			"6iOCcv2lEeSFtiimx_V4dw": "sys-pkg:1|geograph:1",
			"6iODCP2lEeSFtiimx_V4dw": "sys-pkg:1|geograph:1",
			"6iODqP2lEeSFtiimx_V4dw": "sys-pkg:1|geograph:1",
			"6iOE3v2lEeSFtiimx_V4dw": "sys-pkg:1|geograph:1",
			"6iOEPv2lEeSFtiimx_V4dw": "sys-pkg:1|geograph:1",
			"6iOFdP2lEeSFtiimx_V4dw": "sys-pkg:1|geograph:1",
			"6iOGCv2lEeSFtiimx_V4dw": "sys-pkg:1|geograph:1",
			"6iOGqv2lEeSFtiimx_V4dw": "sys-pkg:1|geograph:1",
			"6iOH1v2lEeSFtiimx_V4dw": "sys-pkg:1|geograph:1",
			"6iOHQP2lEeSFtiimx_V4dw": "sys-pkg:1|geograph:1",
			"6iOIbP2lEeSFtiimx_V4dw": "sys-pkg:1|geograph:1",
			"6iOJAv2lEeSFtiimx_V4dw": "sys-pkg:1|geograph:1",
			"6iOJov2lEeSFtiimx_V4dw": "sys-pkg:1|geograph:1",
			"6iOKOP2lEeSFtiimx_V4dw": "sys-pkg:1|geograph:1",
			"6iOKzv2lEeSFtiimx_V4dw": "sys-pkg:1|geograph:1",
			"6iOLZP2lEeSFtiimx_V4dw": "sys-pkg:1|geograph:1",
			"6iOMBP2lEeSFtiimx_V4dw": "sys-pkg:1|geograph:1",
			"6iOM_v2lEeSFtiimx_V4dw": "sys-pkg:1|geograph:1",
			"6iOMmv2lEeSFtiimx_V4dw": "sys-pkg:1|geograph:1",
			"6iONYv2lEeSFtiimx_V4dw": "sys-pkg:1|geograph:1",
			"6iONxv2lEeSFtiimx_V4dw": "sys-pkg:1|geograph:1",
			"6iOO6P2lEeSFtiimx_V4dw": "sys-pkg:1|geograph:1",
			"6iOOIP2lEeSFtiimx_V4dw": "sys-pkg:1|geograph:1",
			"6iOOhP2lEeSFtiimx_V4dw": "sys-pkg:1|geograph:1",
			"6iOPTP2lEeSFtiimx_V4dw": "sys-pkg:1|geograph:1",
			"6iOPsP2lEeSFtiimx_V4dw": "sys-pkg:1|geograph:1",
			"6iOQ0v2lEeSFtiimx_V4dw": "sys-pkg:1|geograph:1",
			"6iOQCv2lEeSFtiimx_V4dw": "sys-pkg:1|geograph:1",
			"6iOQbv2lEeSFtiimx_V4dw": "sys-pkg:1|geograph:1",
			"6iOR9P2lEeSFtiimx_V4dw": "sys-pkg:1|geograph:1",
			"6iORNv2lEeSFtiimx_V4dw": "sys-pkg:1|geograph:1",
			"6iORkP2lEeSFtiimx_V4dw": "sys-pkg:1|geograph:1",
			"6iOSWP2lEeSFtiimx_V4dw": "sys-pkg:1|geograph:1",
			"6iOT6P2lEeSFtiimx_V4dw": "sys-pkg:1|geograph:1",
			"6iOTIP2lEeSFtiimx_V4dw": "sys-pkg:1|geograph:1",
			"6iOThP2lEeSFtiimx_V4dw": "sys-pkg:1|geograph:1",
			"6iOUuv2lEeSFtiimx_V4dw": "sys-pkg:1|geograph:1",
			"6iOV5v2lEeSFtiimx_V4dw": "sys-pkg:1|geograph:1",
			"6iOVHv2lEeSFtiimx_V4dw": "sys-pkg:1|geograph:1",
			"6iOVgv2lEeSFtiimx_V4dw": "sys-pkg:1|geograph:1",
			"6iOWrv2lEeSFtiimx_V4dw": "sys-pkg:1|geograph:1",
			"6iOX0P2lEeSFtiimx_V4dw": "sys-pkg:1|geograph:1",
			"6iOXCP2lEeSFtiimx_V4dw": "sys-pkg:1|geograph:1",
			"6iOXbP2lEeSFtiimx_V4dw": "sys-pkg:1|geograph:1",
			"6iOYNP2lEeSFtiimx_V4dw": "sys-pkg:1|geograph:1",
			"6iOY_P2lEeSFtiimx_V4dw": "sys-pkg:1|geograph:1",
			"6iOYmP2lEeSFtiimx_V4dw": "sys-pkg:1|geograph:1",
			"6iOZVv2lEeSFtiimx_V4dw": "sys-pkg:1|geograph:1",
			"6iOZuv2lEeSFtiimx_V4dw": "sys-pkg:1|geograph:1",
			"6iOa5v2lEeSFtiimx_V4dw": "sys-pkg:1|geograph:1",
			"6iOaHv2lEeSFtiimx_V4dw": "sys-pkg:1|geograph:1",
			"6iOagv2lEeSFtiimx_V4dw": "sys-pkg:1|geograph:1",
			"6iObQP2lEeSFtiimx_V4dw": "sys-pkg:1|geograph:1",
			"6iObpP2lEeSFtiimx_V4dw": "sys-pkg:1|geograph:1",
			"6iOc0P2lEeSFtiimx_V4dw": "sys-pkg:1|geograph:1",
			"6iOcCP2lEeSFtiimx_V4dw": "sys-pkg:1|geograph:1",
			"6iOcbP2lEeSFtiimx_V4dw": "sys-pkg:1|geograph:1",
			"6iOd8v2lEeSFtiimx_V4dw": "sys-pkg:1|geograph:1",
			"6iOdNP2lEeSFtiimx_V4dw": "sys-pkg:1|geograph:1",
			"6iOdjv2lEeSFtiimx_V4dw": "sys-pkg:1|geograph:1",
			"6iOeVv2lEeSFtiimx_V4dw": "sys-pkg:1|geograph:1",
			"6iOeuv2lEeSFtiimx_V4dw": "sys-pkg:1|geograph:1",
			"6iOfHv2lEeSFtiimx_V4dw": "sys-pkg:1|geograph:1",
			"6iOfgv2lEeSFtiimx_V4dw": "sys-pkg:1|geograph:1",
			"6iOgSv2lEeSFtiimx_V4dw": "sys-pkg:1|geograph:1",
			"6iOgrv2lEeSFtiimx_V4dw": "sys-pkg:1|geograph:1",
			"6iOh0P2lEeSFtiimx_V4dw": "sys-pkg:1|geograph:1",
			"6iOhCP2lEeSFtiimx_V4dw": "sys-pkg:1|geograph:1",
			"6iOhbP2lEeSFtiimx_V4dw": "sys-pkg:1|geograph:1",
			"6iOiNP2lEeSFtiimx_V4dw": "sys-pkg:1|geograph:1",
			"6iOiov2lEeSFtiimx_V4dw": "sys-pkg:1|geograph:1",
			"6iOjBv2lEeSFtiimx_V4dw": "sys-pkg:1|geograph:1",
			"6iOm7v2lEeSFtiimx_V4dw": "sys-pkg:1|geograph:1",
			"6iOnXP2lEeSFtiimx_V4dw": "sys-pkg:1|geograph:1",
			"6iOoJP2lEeSFtiimx_V4dw": "sys-pkg:1|geograph:1",
			"6iOoiP2lEeSFtiimx_V4dw": "sys-pkg:1|geograph:1"
		},
		"Enumeration": {
			"xQ9ORahnQySPd9ofOLX7MQ": "sys-pkg:3"
		},
		"LabelGroup": {
			"0INXkjd1TqumDz3NFi9piQ": "sys-pkg:5",
			"LE6B3AGzSj-3zFUJx_0QOw": "ffi-pledge-db:1|geograph:1",
			"O2Eb-H41TSeHB1iZjCREjQ": "sys-pkg:3"
		}
	},
	"name": "Geographical Data",
	"package_file": {
		"attachment_id": "rYt8Y3tASKWJAMx6ZrL5hw",
		"filename": "data.geographical.0.10.0.json",
		"type": "application/json"
	},
	"version": "0.10.0"
}